<?xml version="1.0" encoding="utf-8"?>
<!-- Generator: Adobe Illustrator 23.0.0, SVG Export Plug-In . SVG Version: 6.00 Build 0)  -->
<svg version="1.1" id="Capa_1" xmlns="http://www.w3.org/2000/svg" xmlns:xlink="http://www.w3.org/1999/xlink" x="0px" y="0px"
	 viewBox="0 0 120 71" style="enable-background:new 0 0 120 71;" xml:space="preserve">
<style type="text/css">
	.st0{fill:#3E3E3D;}
	.st1{fill:#FFFFFF;}
	.st2{fill:#C8002D;}
	.st3{opacity:0.5;fill:#F1F1F1;}
	.st4{fill:#9A8F6B;}
	.st5{fill:#6F6F6E;}
	.st6{fill:none;stroke:#202020;stroke-width:0.5;stroke-miterlimit:10;}
	.st7{fill:#D5D6D0;}
	.st8{fill:none;stroke:#848484;stroke-miterlimit:10;}
	.st9{fill:#FFFFFF;stroke:#3E3E3D;stroke-width:0.25;stroke-miterlimit:10;}
	.st10{fill:#B0B0B0;}
	.st11{fill:#686868;}
	.st12{fill:#F1F1F1;}
	.st13{fill:#363636;}
</style>
<g id="Clocks_2_">
	<path id="Clocks_3_" class="st10" d="M99.26,28.21c-0.84-1.01-2.03-1.59-3.25-1.59h-0.35c-0.82,0-1.49-0.67-1.49-1.49v0
		c0-2.67-2.32-4.84-5.17-4.84h-0.94c-0.82,0-1.49-0.67-1.49-1.49v-1.26c0-1.29-0.55-2.55-1.51-3.46c-1.91-1.8-5.2-1.8-7.11,0
		C77,15,76.45,16.26,76.45,17.55v11.38c0,0.82-0.67,1.49-1.49,1.49H45.03c-0.82,0-1.49-0.67-1.49-1.49V17.55
		c0-1.29-0.55-2.55-1.51-3.46c-1.91-1.8-5.2-1.8-7.11,0c-0.96,0.91-1.51,2.17-1.51,3.46v1.26c0,0.82-0.67,1.49-1.49,1.49H30.7
		c-1.28,0-2.49,0.46-3.41,1.3c-0.93,0.85-1.46,2.05-1.46,3.27v0.27c0,0.82-0.67,1.49-1.49,1.49h-0.34c-1.23,0-2.42,0.58-3.26,1.59
		c-0.8,0.96-1.24,2.23-1.24,3.56v7.41c0,1.33,0.44,2.6,1.24,3.56c0.84,1.01,2.03,1.59,3.26,1.59h0.34c0.82,0,1.49,0.67,1.49,1.49
		v0.27c0,1.22,0.53,2.41,1.47,3.27c0.92,0.84,2.13,1.3,3.41,1.3h1.24c0.82,0,1.49,0.67,1.49,1.49v1.26c0,1.29,0.55,2.55,1.51,3.46
		c0.95,0.9,2.21,1.4,3.55,1.4s2.6-0.5,3.55-1.4c0.96-0.91,1.51-2.17,1.51-3.46V42.03c0-0.82,0.67-1.49,1.49-1.49h29.93
		c0.82,0,1.49,0.67,1.49,1.49v11.38c0,1.29,0.55,2.55,1.51,3.46c0.95,0.9,2.21,1.4,3.55,1.4c1.34,0,2.6-0.5,3.55-1.4
		c0.96-0.91,1.51-2.17,1.51-3.46v-1.26c0-0.82,0.67-1.49,1.49-1.49H89c2.85,0,5.17-2.17,5.17-4.84l0,0c0-0.82,0.67-1.49,1.49-1.49
		h0.35c1.22,0,2.41-0.58,3.25-1.59c0.8-0.96,1.24-2.22,1.24-3.54v-7.45C100.5,30.42,100.06,29.17,99.26,28.21z M24.01,41.81
		c-0.48,0-0.95-0.24-1.32-0.68c-0.42-0.5-0.66-1.21-0.66-1.94v-7.41c0-0.73,0.24-1.44,0.66-1.94c0.37-0.44,0.84-0.68,1.32-0.68h0.34
		c0.82,0,1.49,0.67,1.49,1.49v9.68c0,0.82-0.67,1.49-1.49,1.49H24.01z M30.7,48.13c-0.64,0-1.26-0.23-1.69-0.63
		c-0.42-0.38-0.65-0.88-0.65-1.41v-3.02V27.88v-3.02c0-0.52,0.23-1.02,0.64-1.4c0.44-0.4,1.06-0.64,1.7-0.64h1.24
		c0.82,0,1.49,0.67,1.49,1.49v22.34c0,0.82-0.67,1.49-1.49,1.49L30.7,48.13z M41.02,53.41c0,0.61-0.25,1.18-0.72,1.61
		c-0.95,0.9-2.68,0.9-3.63,0c-0.46-0.44-0.72-1.01-0.72-1.61V49.4V21.56v-4.01c0-0.61,0.25-1.18,0.72-1.61
		c0.47-0.45,1.14-0.7,1.82-0.7s1.34,0.26,1.82,0.7c0.46,0.44,0.72,1.01,0.72,1.62v14.13v7.59V53.41z M43.55,36.52v-2.09
		c0-0.82,0.67-1.49,1.49-1.49h29.93c0.82,0,1.49,0.67,1.49,1.49v2.09c0,0.82-0.67,1.49-1.49,1.49H45.03
		C44.21,38.01,43.55,37.34,43.55,36.52z M84.05,53.41c0,0.61-0.25,1.18-0.72,1.61c-0.95,0.9-2.68,0.9-3.63,0
		c-0.46-0.44-0.72-1.01-0.72-1.61V39.27v-7.59V17.55c0-0.61,0.25-1.18,0.72-1.61c0.47-0.45,1.14-0.7,1.82-0.7
		c0.68,0,1.34,0.26,1.82,0.7c0.46,0.43,0.72,1.01,0.72,1.61v4.01V49.4V53.41z M91.64,45.82c0,1.27-1.18,2.31-2.64,2.31h-0.94
		c-0.82,0-1.49-0.67-1.49-1.49V24.31c0-0.82,0.67-1.49,1.49-1.49H89c1.45,0,2.64,1.04,2.64,2.31v2.75v15.19V45.82z M97.97,39.2
		c0,0.73-0.24,1.43-0.65,1.92c-0.36,0.44-0.83,0.68-1.31,0.68h-0.35c-0.82,0-1.49-0.67-1.49-1.49v-9.68c0-0.82,0.67-1.49,1.49-1.49
		h0.35c0.48,0,0.94,0.24,1.31,0.68c0.41,0.5,0.65,1.2,0.65,1.92V39.2z"/>
</g>
</svg>
